{
	"info": {
		"_postman_id": "6571301a-0d14-48c7-a321-224a2b157d16",
		"name": "gamtong",
		"schema": "https://schema.getpostman.com/json/collection/v2.1.0/collection.json"
	},
	"item": [
		{
			"name": "join_member",
			"request": {
				"method": "GET",
				"header": [],
				"url": {
					"raw": "https://fishmarketrestaurantkk.com/gt/api/join_member.php?secode=sasaapp20181019&first_name=11111&last_name=11111&email=11111&address_1=11111&address_2=11111&state=Johor&postcode=11111&phone_number=0123706400&referral_id=11111&password=222222",
					"protocol": "https",
					"host": [
						"fishmarketrestaurantkk",
						"com"
					],
					"path": [
						"gt",
						"api",
						"join_member.php"
					],
					"query": [
						{
							"key": "secode",
							"value": "sasaapp20181019"
						},
						{
							"key": "subscribe",
							"value": "sddsadadas",
							"disabled": true
						},
						{
							"key": "first_name",
							"value": "11111"
						},
						{
							"key": "last_name",
							"value": "11111"
						},
						{
							"key": "email",
							"value": "11111"
						},
						{
							"key": "address_1",
							"value": "11111"
						},
						{
							"key": "address_2",
							"value": "11111"
						},
						{
							"key": "state",
							"value": "Johor"
						},
						{
							"key": "postcode",
							"value": "11111"
						},
						{
							"key": "phone_number",
							"value": "0123706400"
						},
						{
							"key": "referral_id",
							"value": "11111"
						},
						{
							"key": "password",
							"value": "222222"
						}
					]
				}
			},
			"response": []
		},
		{
			"name": "join_member_verify",
			"request": {
				"method": "GET",
				"header": [],
				"url": {
					"raw": "https://www.fishmarketrestaurantkk.com/gt/api/join_member_verify.php?secode=sasaapp20181019&UUID=352DAC06-8BF3-4650-F7FA-28E898642EDF&tac=703971",
					"protocol": "https",
					"host": [
						"www",
						"fishmarketrestaurantkk",
						"com"
					],
					"path": [
						"gt",
						"api",
						"join_member_verify.php"
					],
					"query": [
						{
							"key": "secode",
							"value": "sasaapp20181019"
						},
						{
							"key": "UUID",
							"value": "352DAC06-8BF3-4650-F7FA-28E898642EDF"
						},
						{
							"key": "tac",
							"value": "703971"
						}
					]
				}
			},
			"response": []
		},
		{
			"name": "member_record",
			"request": {
				"method": "GET",
				"header": [],
				"url": {
					"raw": "https://www.fishmarketrestaurantkk.com/gt/api/member_recode.php?secode=sasaapp20181019&UUID=1880ABAE-4D4B-6F53-4AF9-BAD2936D3C97",
					"protocol": "https",
					"host": [
						"www",
						"fishmarketrestaurantkk",
						"com"
					],
					"path": [
						"gt",
						"api",
						"member_recode.php"
					],
					"query": [
						{
							"key": "secode",
							"value": "sasaapp20181019"
						},
						{
							"key": "UUID",
							"value": "1880ABAE-4D4B-6F53-4AF9-BAD2936D3C97"
						}
					]
				}
			},
			"response": []
		},
		{
			"name": "member_login",
			"request": {
				"method": "GET",
				"header": [],
				"url": {
					"raw": "https://www.fishmarketrestaurantkk.com/gt/api/member_login.php?secode=sasaapp20181019&contact=0123706400&password=111111",
					"protocol": "https",
					"host": [
						"www",
						"fishmarketrestaurantkk",
						"com"
					],
					"path": [
						"gt",
						"api",
						"member_login.php"
					],
					"query": [
						{
							"key": "secode",
							"value": "sasaapp20181019"
						},
						{
							"key": "contact",
							"value": "0123706400"
						},
						{
							"key": "password",
							"value": "111111"
						}
					]
				}
			},
			"response": []
		},
		{
			"name": "member_login_by_tac",
			"request": {
				"method": "GET",
				"header": [],
				"url": {
					"raw": "https://www.fishmarketrestaurantkk.com/gt/api/member_login_by_tacs.php?secode=sasaapp20181019&contact=0123706400&tac=364434",
					"protocol": "https",
					"host": [
						"www",
						"fishmarketrestaurantkk",
						"com"
					],
					"path": [
						"gt",
						"api",
						"member_login_by_tacs.php"
					],
					"query": [
						{
							"key": "secode",
							"value": "sasaapp20181019"
						},
						{
							"key": "contact",
							"value": "0123706400"
						},
						{
							"key": "tac",
							"value": "364434"
						}
					]
				}
			},
			"response": []
		},
		{
			"name": "member_login_generate_code",
			"request": {
				"method": "GET",
				"header": [],
				"url": {
					"raw": "https://www.fishmarketrestaurantkk.com/gt/api/member_login_generate_code.php?secode=sasaapp20181019&contact=012370640",
					"protocol": "https",
					"host": [
						"www",
						"fishmarketrestaurantkk",
						"com"
					],
					"path": [
						"gt",
						"api",
						"member_login_generate_code.php"
					],
					"query": [
						{
							"key": "secode",
							"value": "sasaapp20181019"
						},
						{
							"key": "contact",
							"value": "012370640"
						}
					]
				}
			},
			"response": []
		}
	],
	"protocolProfileBehavior": {}
}