{
	"info": {
		"_postman_id": "dede0f1d-697d-4c39-a09a-cf97ef4a66f3",
		"name": "lookhere",
		"schema": "https://schema.getpostman.com/json/collection/v2.1.0/collection.json"
	},
	"item": [
		{
			"name": "uuid send",
			"request": {
				"method": "GET",
				"header": [],
				"url": {
					"raw": "https://www.ktic.com.my/lookHere/api/device_setup.php?security_code=36BBA69CBEA56FBFE09E17B31C26D57B&uid=36E7DF00-DDB4-40CB-B08C-E32C64E5A6EC&dev_mode=1",
					"protocol": "https",
					"host": [
						"www",
						"ktic",
						"com",
						"my"
					],
					"path": [
						"lookHere",
						"api",
						"device_setup.php"
					],
					"query": [
						{
							"key": "security_code",
							"value": "36BBA69CBEA56FBFE09E17B31C26D57B"
						},
						{
							"key": "uid",
							"value": "36E7DF00-DDB4-40CB-B08C-E32C64E5A6EC"
						},
						{
							"key": "dev_mode",
							"value": "1"
						}
					]
				}
			},
			"response": []
		},
		{
			"name": "MEDIA LIST",
			"request": {
				"method": "GET",
				"header": [],
				"url": {
					"raw": "https://www.ktic.com.my/lookHere/api/media_list.php?security_code=36BBA69CBEA56FBFE09E17B31C26D57B&uid=76c024b9efc2c9c3",
					"protocol": "https",
					"host": [
						"www",
						"ktic",
						"com",
						"my"
					],
					"path": [
						"lookHere",
						"api",
						"media_list.php"
					],
					"query": [
						{
							"key": "security_code",
							"value": "36BBA69CBEA56FBFE09E17B31C26D57B"
						},
						{
							"key": "uid",
							"value": "76c024b9efc2c9c3"
						}
					]
				}
			},
			"response": []
		},
		{
			"name": "Device Mode",
			"request": {
				"method": "GET",
				"header": [],
				"url": {
					"raw": "https://www.ktic.com.my/lookHere/api/device_mode.php?security_code=36BBA69CBEA56FBFE09E17B31C26D57B&uid=c141c95b19e6271&dev_mode=1",
					"protocol": "https",
					"host": [
						"www",
						"ktic",
						"com",
						"my"
					],
					"path": [
						"lookHere",
						"api",
						"device_mode.php"
					],
					"query": [
						{
							"key": "security_code",
							"value": "36BBA69CBEA56FBFE09E17B31C26D57B"
						},
						{
							"key": "uid",
							"value": "c141c95b19e6271"
						},
						{
							"key": "dev_mode",
							"value": "1"
						}
					]
				}
			},
			"response": []
		},
		{
			"name": "Marquee Device",
			"request": {
				"method": "GET",
				"header": [],
				"url": {
					"raw": "https://www.ktic.com.my/lookHere/api/marquee.php?security_code=36BBA69CBEA56FBFE09E17B31C26D57B&uid=c141c95b19e6271",
					"protocol": "https",
					"host": [
						"www",
						"ktic",
						"com",
						"my"
					],
					"path": [
						"lookHere",
						"api",
						"marquee.php"
					],
					"query": [
						{
							"key": "security_code",
							"value": "36BBA69CBEA56FBFE09E17B31C26D57B"
						},
						{
							"key": "uid",
							"value": "c141c95b19e6271"
						}
					]
				}
			},
			"response": []
		},
		{
			"name": "barcode",
			"request": {
				"method": "GET",
				"header": [],
				"url": {
					"raw": "https://www.ktic.com.my/lookHere/api/logo.php?security_code=36BBA69CBEA56FBFE09E17B31C26D57B",
					"protocol": "https",
					"host": [
						"www",
						"ktic",
						"com",
						"my"
					],
					"path": [
						"lookHere",
						"api",
						"logo.php"
					],
					"query": [
						{
							"key": "security_code",
							"value": "36BBA69CBEA56FBFE09E17B31C26D57B"
						}
					]
				}
			},
			"response": []
		},
		{
			"name": "landscape",
			"request": {
				"method": "GET",
				"header": [],
				"url": {
					"raw": "https://www.ktic.com.my/lookHere/api/media_list_landscape.php?security_code=36BBA69CBEA56FBFE09E17B31C26D57B&uid=76c024b9efc2c9c3",
					"protocol": "https",
					"host": [
						"www",
						"ktic",
						"com",
						"my"
					],
					"path": [
						"lookHere",
						"api",
						"media_list_landscape.php"
					],
					"query": [
						{
							"key": "security_code",
							"value": "36BBA69CBEA56FBFE09E17B31C26D57B"
						},
						{
							"key": "uid",
							"value": "76c024b9efc2c9c3"
						}
					]
				}
			},
			"response": []
		}
	],
	"protocolProfileBehavior": {}
}