{
  "project_info": {
    "project_number": "766148883240",
    "firebase_url": "https://sasa-mobile-app-1543543433329.firebaseio.com",
    "project_id": "sasa-mobile-app-1543543433329",
    "storage_bucket": "sasa-mobile-app-1543543433329.appspot.com"
  },
  "client": [
    {
      "client_info": {
        "mobilesdk_app_id": "1:766148883240:android:74b4227c6376002b",
        "android_client_info": {
          "package_name": "com.sasa.malaysia"
        }
      },
      "oauth_client": [
        {
          "client_id": "766148883240-m7ndbddv00ps7o9eqb7fsi3lpkle5ee0.apps.googleusercontent.com",
          "client_type": 3
        }
      ],
      "api_key": [
        {
          "current_key": "AIzaSyCpjeq5bBsilUKs9PJ--TWUERAWSlvSuP4"
        }
      ],
      "services": {
        "analytics_service": {
          "status": 1
        },
        "appinvite_service": {
          "status": 1,
          "other_platform_oauth_client": []
        },
        "ads_service": {
          "status": 2
        }
      }
    }
  ],
  "configuration_version": "1"
}